<?xml version="1.0" encoding="UTF-8" standalone="no"?>
<svg
   xmlns:dc="http://purl.org/dc/elements/1.1/"
   xmlns:cc="http://creativecommons.org/ns#"
   xmlns:rdf="http://www.w3.org/1999/02/22-rdf-syntax-ns#"
   xmlns:svg="http://www.w3.org/2000/svg"
   xmlns="http://www.w3.org/2000/svg"
   xmlns:xlink="http://www.w3.org/1999/xlink"
   xmlns:sodipodi="http://sodipodi.sourceforge.net/DTD/sodipodi-0.dtd"
   xmlns:inkscape="http://www.inkscape.org/namespaces/inkscape"
   width="36"
   height="36"
   viewBox="0 0 9.5250003 9.5250003"
   version="1.1"
   id="svg8"
   inkscape:version="1.0.2 (e86c870879, 2021-01-15, custom)"
   sodipodi:docname="experimentaltwitteroriginal.svg">
  <defs
     id="defs2">
    <clipPath
       clipPathUnits="userSpaceOnUse"
       id="clipPath893">
      <use
         x="0"
         y="0"
         xlink:href="#g889"
         id="use895" />
    </clipPath>
  </defs>
  <sodipodi:namedview
     id="base"
     pagecolor="#ffffff"
     bordercolor="#666666"
     borderopacity="1.0"
     inkscape:pageopacity="0.0"
     inkscape:pageshadow="2"
     inkscape:zoom="22.4"
     inkscape:cx="17.104373"
     inkscape:cy="19.191586"
     inkscape:document-units="mm"
     inkscape:current-layer="g891"
     inkscape:document-rotation="0"
     showgrid="false"
     inkscape:window-width="1366"
     inkscape:window-height="705"
     inkscape:window-x="-8"
     inkscape:window-y="-8"
     inkscape:window-maximized="1"
     units="px"
     inkscape:lockguides="true" />
  <metadata
     id="metadata5">
    <rdf:RDF>
      <cc:Work
         rdf:about="">
        <dc:format>image/svg+xml</dc:format>
        <dc:type
           rdf:resource="http://purl.org/dc/dcmitype/StillImage" />
        <dc:title></dc:title>
      </cc:Work>
    </rdf:RDF>
  </metadata>
  <g
     inkscape:groupmode="layer"
     id="layer2"
     inkscape:label="beak" />
  <g
     inkscape:groupmode="layer"
     id="layer3"
     inkscape:label="head" />
  <g
     inkscape:groupmode="layer"
     id="layer5"
     inkscape:label="wing" />
  <g
     inkscape:groupmode="layer"
     id="layer4"
     inkscape:label="body">
    <g
       id="g891"
       clip-path="url(#clipPath893)"
       transform="matrix(0.05844884,0,0,0.05844884,-1.3807074,-3.3797608)">
      <g
         inkscape:label="Clip"
         id="g889">
        <path
           style="fill:#c17839;fill-opacity:1;stroke:none;stroke-width:0.264583px;stroke-linecap:butt;stroke-linejoin:miter;stroke-opacity:1"
           d="m 169.05943,104.31814 c 7.19237,-3.78852 13.5166,-10.785666 16.96015,-16.319651 -5.71137,2.267992 -11.66846,4.249308 -18.44159,5.278575 -0.83946,-5.406153 -1.16929,-6.029664 1.48144,11.041076 z"
           id="path850"
           sodipodi:nodetypes="cccc" />
        <path
           style="fill:#c17839;fill-opacity:1;stroke:none;stroke-width:0.264583px;stroke-linecap:butt;stroke-linejoin:miter;stroke-opacity:1"
           d="m 160.36172,83.922631 7.21627,9.354433 c 8.55943,-5.166454 11.38315,-10.97021 13.63075,-16.83798 -6.1804,2.878817 -10.70991,6.583081 -20.84702,7.483547 z"
           id="path847"
           sodipodi:nodetypes="cccc" />
        <path
           style="fill:#122656;fill-opacity:0.995984;stroke:none;stroke-width:0.264583px;stroke-linecap:butt;stroke-linejoin:miter;stroke-opacity:1"
           d="m 103.94345,115.28274 c 21.78296,8.01746 43.56591,10.93879 65.34887,0.1161 1.14637,-7.31895 -1.00717,-15.26621 -1.71433,-22.121776 -5.11256,-6.976764 -10.04472,-19.933329 -33.01847,-19.949683 -32.74371,4.4204 -34.23258,30.349609 -30.61607,41.955359 z"
           id="path854"
           sodipodi:nodetypes="ccccc" />
        <circle
           style="fill:#000000;fill-opacity:0.86747;stroke:none;stroke-width:0.264583;stroke-opacity:1"
           id="path856"
           cx="144.95387"
           cy="87.123512"
           r="7.3705359" />
        <path
           style="fill:#094043;fill-opacity:0.815261;stroke:none;stroke-width:0.264583px;stroke-linecap:butt;stroke-linejoin:miter;stroke-opacity:1"
           d="m 72.193451,177.64881 c -15.749074,-2.35619 -25.571135,-10.74545 -31.183035,-22.86756 5.093828,0.27073 10.312957,1.16796 14.930059,-0.94494 -15.695708,-8.25178 -25.08193,-16.94832 -27.025298,-32.88393 4.863215,2.6337 9.941106,3.97936 15.308037,3.59077 C 29.630287,111.31943 27.327223,96.301752 33.450892,79.941964 57.931099,98.718162 76.263408,114.99167 103.94345,115.28274 99.147414,138.64356 85.883149,158.24073 72.193451,177.64881 Z"
           id="path872"
           sodipodi:nodetypes="cccccccc" />
        <path
           style="fill:#092a43;fill-opacity:1;stroke:none;stroke-width:0.264583px;stroke-linecap:butt;stroke-linejoin:miter;stroke-opacity:1"
           d="M 23.056547,192.0119 C 89.455799,227.82816 162.10407,161.90003 169.29232,115.39884 l -65.34887,-0.1161 c -14.361238,27.52535 -23.175069,60.34924 -50.270833,72.9494 -9.207443,3.4183 -19.398711,5.37622 -30.61607,3.77976 z"
           id="path861"
           sodipodi:nodetypes="ccccc" />
      </g>
    </g>
  </g>
</svg>
